DAY_5/for_generate/tb_rca.vcd
$date
	Mon Aug  4 01:50:46 2025
$end
$version
	Icarus Verilog
$end
$timescale
	1ps
$end
$scope module tb_rca $end
$var wire 9 ! sum_out [8:0] $end
$var reg 1 " clk $end
$var reg 8 # num1 [7:0] $end
$var reg 8 $ num2 [7:0] $end
$var reg 1 % reset $end
$scope module uut $end
$var wire 8 & num1 [7:0] $end
$var wire 8 ' num2 [7:0] $end
$var wire 1 ( \u_fa_0.sum $end
$var wire 9 ) sum [8:0] $end
$var wire 1 * \genblk1[7].u_fa_1.sum $end
$var wire 1 + \genblk1[7].u_fa_1.co $end
$var wire 1 , \genblk1[6].u_fa_1.sum $end
$var wire 1 - \genblk1[6].u_fa_1.co $end
$var wire 1 . \genblk1[5].u_fa_1.sum $end
$var wire 1 / \genblk1[5].u_fa_1.co $end
$var wire 1 0 \genblk1[4].u_fa_1.sum $end
$var wire 1 1 \genblk1[4].u_fa_1.co $end
$var wire 1 2 \genblk1[3].u_fa_1.sum $end
$var wire 1 3 \genblk1[3].u_fa_1.co $end
$var wire 1 4 \genblk1[2].u_fa_1.sum $end
$var wire 1 5 \genblk1[2].u_fa_1.co $end
$var wire 1 6 \genblk1[1].u_fa_1.sum $end
$var wire 1 7 \genblk1[1].u_fa_1.co $end
$var wire 1 8 \genblk1[1].u_fa_1.c $end
$scope module _00_ $end
$var wire 1 9 B $end
$var wire 1 : C $end
$var wire 1 ; VGND $end
$var wire 1 < VNB $end
$var wire 1 = VPB $end
$var wire 1 > VPWR $end
$var wire 1 7 X $end
$var wire 1 8 A $end
$scope module base $end
$var wire 1 9 B $end
$var wire 1 : C $end
$var wire 1 ? VGND $end
$var wire 1 @ VNB $end
$var wire 1 A VPB $end
$var wire 1 B VPWR $end
$var wire 1 7 X $end
$var wire 1 C and0_out $end
$var wire 1 D and1_out $end
$var wire 1 E or0_out $end
$var wire 1 F or1_out_X $end
$var wire 1 8 A $end
$upscope $end
$upscope $end
$scope module _01_ $end
$var wire 1 G B $end
$var wire 1 H C $end
$var wire 1 I VGND $end
$var wire 1 J VNB $end
$var wire 1 K VPB $end
$var wire 1 L VPWR $end
$var wire 1 6 X $end
$var wire 1 8 A $end
$scope module base $end
$var wire 1 G B $end
$var wire 1 H C $end
$var wire 1 M VGND $end
$var wire 1 N VNB $end
$var wire 1 O VPB $end
$var wire 1 P VPWR $end
$var wire 1 6 X $end
$var wire 1 Q xor0_out_X $end
$var wire 1 8 A $end
$upscope $end
$upscope $end
$scope module _02_ $end
$var wire 1 7 A $end
$var wire 1 R B $end
$var wire 1 S C $end
$var wire 1 T VGND $end
$var wire 1 U VNB $end
$var wire 1 V VPB $end
$var wire 1 W VPWR $end
$var wire 1 5 X $end
$scope module base $end
$var wire 1 7 A $end
$var wire 1 R B $end
$var wire 1 S C $end
$var wire 1 X VGND $end
$var wire 1 Y VNB $end
$var wire 1 Z VPB $end
$var wire 1 [ VPWR $end
$var wire 1 5 X $end
$var wire 1 \ and0_out $end
$var wire 1 ] and1_out $end
$var wire 1 ^ or0_out $end
$var wire 1 _ or1_out_X $end
$upscope $end
$upscope $end
$scope module _03_ $end
$var wire 1 7 A $end
$var wire 1 ` B $end
$var wire 1 a C $end
$var wire 1 b VGND $end
$var wire 1 c VNB $end
$var wire 1 d VPB $end
$var wire 1 e VPWR $end
$var wire 1 4 X $end
$scope module base $end
$var wire 1 7 A $end
$var wire 1 ` B $end
$var wire 1 a C $end
$var wire 1 f VGND $end
$var wire 1 g VNB $end
$var wire 1 h VPB $end
$var wire 1 i VPWR $end
$var wire 1 4 X $end
$var wire 1 j xor0_out_X $end
$upscope $end
$upscope $end
$scope module _04_ $end
$var wire 1 5 A $end
$var wire 1 k B $end
$var wire 1 l C $end
$var wire 1 m VGND $end
$var wire 1 n VNB $end
$var wire 1 o VPB $end
$var wire 1 p VPWR $end
$var wire 1 3 X $end
$scope module base $end
$var wire 1 5 A $end
$var wire 1 k B $end
$var wire 1 l C $end
$var wire 1 q VGND $end
$var wire 1 r VNB $end
$var wire 1 s VPB $end
$var wire 1 t VPWR $end
$var wire 1 3 X $end
$var wire 1 u and0_out $end
$var wire 1 v and1_out $end
$var wire 1 w or0_out $end
$var wire 1 x or1_out_X $end
$upscope $end
$upscope $end
$scope module _05_ $end
$var wire 1 5 A $end
$var wire 1 y B $end
$var wire 1 z C $end
$var wire 1 { VGND $end
$var wire 1 | VNB $end
$var wire 1 } VPB $end
$var wire 1 ~ VPWR $end
$var wire 1 2 X $end
$scope module base $end
$var wire 1 5 A $end
$var wire 1 y B $end
$var wire 1 z C $end
$var wire 1 !" VGND $end
$var wire 1 "" VNB $end
$var wire 1 #" VPB $end
$var wire 1 $" VPWR $end
$var wire 1 2 X $end
$var wire 1 %" xor0_out_X $end
$upscope $end
$upscope $end
$scope module _06_ $end
$var wire 1 3 A $end
$var wire 1 &" B $end
$var wire 1 '" C $end
$var wire 1 (" VGND $end
$var wire 1 )" VNB $end
$var wire 1 *" VPB $end
$var wire 1 +" VPWR $end
$var wire 1 1 X $end
$scope module base $end
$var wire 1 3 A $end
$var wire 1 &" B $end
$var wire 1 '" C $end
$var wire 1 ," VGND $end
$var wire 1 -" VNB $end
$var wire 1 ." VPB $end
$var wire 1 /" VPWR $end
$var wire 1 1 X $end
$var wire 1 0" and0_out $end
$var wire 1 1" and1_out $end
$var wire 1 2" or0_out $end
$var wire 1 3" or1_out_X $end
$upscope $end
$upscope $end
$scope module _07_ $end
$var wire 1 3 A $end
$var wire 1 4" B $end
$var wire 1 5" C $end
$var wire 1 6" VGND $end
$var wire 1 7" VNB $end
$var wire 1 8" VPB $end
$var wire 1 9" VPWR $end
$var wire 1 0 X $end
$scope module base $end
$var wire 1 3 A $end
$var wire 1 4" B $end
$var wire 1 5" C $end
$var wire 1 :" VGND $end
$var wire 1 ;" VNB $end
$var wire 1 <" VPB $end
$var wire 1 =" VPWR $end
$var wire 1 0 X $end
$var wire 1 >" xor0_out_X $end
$upscope $end
$upscope $end
$scope module _08_ $end
$var wire 1 1 A $end
$var wire 1 ?" B $end
$var wire 1 @" C $end
$var wire 1 A" VGND $end
$var wire 1 B" VNB $end
$var wire 1 C" VPB $end
$var wire 1 D" VPWR $end
$var wire 1 / X $end
$scope module base $end
$var wire 1 1 A $end
$var wire 1 ?" B $end
$var wire 1 @" C $end
$var wire 1 E" VGND $end
$var wire 1 F" VNB $end
$var wire 1 G" VPB $end
$var wire 1 H" VPWR $end
$var wire 1 / X $end
$var wire 1 I" and0_out $end
$var wire 1 J" and1_out $end
$var wire 1 K" or0_out $end
$var wire 1 L" or1_out_X $end
$upscope $end
$upscope $end
$scope module _09_ $end
$var wire 1 1 A $end
$var wire 1 M" B $end
$var wire 1 N" C $end
$var wire 1 O" VGND $end
$var wire 1 P" VNB $end
$var wire 1 Q" VPB $end
$var wire 1 R" VPWR $end
$var wire 1 . X $end
$scope module base $end
$var wire 1 1 A $end
$var wire 1 M" B $end
$var wire 1 N" C $end
$var wire 1 S" VGND $end
$var wire 1 T" VNB $end
$var wire 1 U" VPB $end
$var wire 1 V" VPWR $end
$var wire 1 . X $end
$var wire 1 W" xor0_out_X $end
$upscope $end
$upscope $end
$scope module _10_ $end
$var wire 1 / A $end
$var wire 1 X" B $end
$var wire 1 Y" C $end
$var wire 1 Z" VGND $end
$var wire 1 [" VNB $end
$var wire 1 \" VPB $end
$var wire 1 ]" VPWR $end
$var wire 1 - X $end
$scope module base $end
$var wire 1 / A $end
$var wire 1 X" B $end
$var wire 1 Y" C $end
$var wire 1 ^" VGND $end
$var wire 1 _" VNB $end
$var wire 1 `" VPB $end
$var wire 1 a" VPWR $end
$var wire 1 - X $end
$var wire 1 b" and0_out $end
$var wire 1 c" and1_out $end
$var wire 1 d" or0_out $end
$var wire 1 e" or1_out_X $end
$upscope $end
$upscope $end
$scope module _11_ $end
$var wire 1 / A $end
$var wire 1 f" B $end
$var wire 1 g" C $end
$var wire 1 h" VGND $end
$var wire 1 i" VNB $end
$var wire 1 j" VPB $end
$var wire 1 k" VPWR $end
$var wire 1 , X $end
$scope module base $end
$var wire 1 / A $end
$var wire 1 f" B $end
$var wire 1 g" C $end
$var wire 1 l" VGND $end
$var wire 1 m" VNB $end
$var wire 1 n" VPB $end
$var wire 1 o" VPWR $end
$var wire 1 , X $end
$var wire 1 p" xor0_out_X $end
$upscope $end
$upscope $end
$scope module _12_ $end
$var wire 1 - A $end
$var wire 1 q" B $end
$var wire 1 r" C $end
$var wire 1 s" VGND $end
$var wire 1 t" VNB $end
$var wire 1 u" VPB $end
$var wire 1 v" VPWR $end
$var wire 1 + X $end
$scope module base $end
$var wire 1 - A $end
$var wire 1 q" B $end
$var wire 1 r" C $end
$var wire 1 w" VGND $end
$var wire 1 x" VNB $end
$var wire 1 y" VPB $end
$var wire 1 z" VPWR $end
$var wire 1 + X $end
$var wire 1 {" and0_out $end
$var wire 1 |" and1_out $end
$var wire 1 }" or0_out $end
$var wire 1 ~" or1_out_X $end
$upscope $end
$upscope $end
$scope module _13_ $end
$var wire 1 - A $end
$var wire 1 !# B $end
$var wire 1 "# C $end
$var wire 1 ## VGND $end
$var wire 1 $# VNB $end
$var wire 1 %# VPB $end
$var wire 1 &# VPWR $end
$var wire 1 * X $end
$scope module base $end
$var wire 1 - A $end
$var wire 1 !# B $end
$var wire 1 "# C $end
$var wire 1 '# VGND $end
$var wire 1 (# VNB $end
$var wire 1 )# VPB $end
$var wire 1 *# VPWR $end
$var wire 1 * X $end
$var wire 1 +# xor0_out_X $end
$upscope $end
$upscope $end
$scope module _14_ $end
$var wire 1 ,# A $end
$var wire 1 -# B $end
$var wire 1 .# C $end
$var wire 1 /# VGND $end
$var wire 1 0# VNB $end
$var wire 1 1# VPB $end
$var wire 1 2# VPWR $end
$var wire 1 8 X $end
$scope module base $end
$var wire 1 ,# A $end
$var wire 1 -# B $end
$var wire 1 .# C $end
$var wire 1 3# VGND $end
$var wire 1 4# VNB $end
$var wire 1 5# VPB $end
$var wire 1 6# VPWR $end
$var wire 1 8 X $end
$var wire 1 7# and0_out $end
$var wire 1 8# and1_out $end
$var wire 1 9# or0_out $end
$var wire 1 :# or1_out_X $end
$upscope $end
$upscope $end
$scope module _15_ $end
$var wire 1 ;# A $end
$var wire 1 <# B $end
$var wire 1 =# C $end
$var wire 1 ># VGND $end
$var wire 1 ?# VNB $end
$var wire 1 @# VPB $end
$var wire 1 A# VPWR $end
$var wire 1 ( X $end
$scope module base $end
$var wire 1 ;# A $end
$var wire 1 <# B $end
$var wire 1 =# C $end
$var wire 1 B# VGND $end
$var wire 1 C# VNB $end
$var wire 1 D# VPB $end
$var wire 1 E# VPWR $end
$var wire 1 ( X $end
$var wire 1 F# xor0_out_X $end
$upscope $end
$upscope $end
$upscope $end
$upscope $end
$enddefinitions $end
$comment Show the parameter values. $end
$dumpall
$end
#0
$dumpvars
0F#
1E#
1D#
0C#
0B#
1A#
1@#
0?#
0>#
0=#
0<#
0;#
0:#
09#
08#
07#
16#
15#
04#
03#
12#
11#
00#
0/#
0.#
0-#
0,#
0+#
1*#
1)#
0(#
0'#
1&#
1%#
0$#
0##
0"#
0!#
0~"
0}"
0|"
0{"
1z"
1y"
0x"
0w"
1v"
1u"
0t"
0s"
0r"
0q"
0p"
1o"
1n"
0m"
0l"
1k"
1j"
0i"
0h"
0g"
0f"
0e"
0d"
0c"
0b"
1a"
1`"
0_"
0^"
1]"
1\"
0["
0Z"
0Y"
0X"
0W"
1V"
1U"
0T"
0S"
1R"
1Q"
0P"
0O"
0N"
0M"
0L"
0K"
0J"
0I"
1H"
1G"
0F"
0E"
1D"
1C"
0B"
0A"
0@"
0?"
0>"
1="
1<"
0;"
0:"
19"
18"
07"
06"
05"
04"
03"
02"
01"
00"
1/"
1."
0-"
0,"
1+"
1*"
0)"
0("
0'"
0&"
0%"
1$"
1#"
0""
0!"
1~
1}
0|
0{
0z
0y
0x
0w
0v
0u
1t
1s
0r
0q
1p
1o
0n
0m
0l
0k
0j
1i
1h
0g
0f
1e
1d
0c
0b
0a
0`
0_
0^
0]
0\
1[
1Z
0Y
0X
1W
1V
0U
0T
0S
0R
0Q
1P
1O
0N
0M
1L
1K
0J
0I
0H
0G
0F
0E
0D
0C
1B
1A
0@
0?
1>
1=
0<
0;
0:
09
08
07
06
05
04
03
02
01
00
0/
0.
0-
0,
0+
0*
b0 )
0(
b0 '
b0 &
1%
b0 $
b0 #
0"
b0 !
$end
#1000
b1 !
b1 )
1(
19#
1F#
1-#
1<#
b1 #
b1 &
0%
#10000
16
b10 !
b10 )
0(
1E
1Q
09#
0F#
19
1G
0-#
0<#
b10 #
b10 &
1"
#20000
b11 !
b11 )
1(
19#
1F#
1-#
1<#
b11 #
b11 &
0"
#30000
06
14
b100 !
b100 )
0(
0E
0Q
1^
1j
09#
0F#
09
0G
1R
1`
0-#
0<#
b100 #
b100 &
1"
#40000
b101 !
b101 )
1(
19#
1F#
1-#
1<#
b101 #
b101 &
0"
#50000
16
b110 !
b110 )
0(
1E
1Q
09#
0F#
19
1G
0-#
0<#
b110 #
b110 &
1"
#60000
b111 !
b111 )
1(
19#
1F#
1-#
1<#
b111 #
b111 &
0"
#70000
06
04
12
b1000 !
b1000 )
0(
0E
0Q
0^
0j
1w
1%"
09#
0F#
09
0G
0R
0`
1k
1y
0-#
0<#
b1000 #
b1000 &
1"
#80000
b1001 !
b1001 )
1(
19#
1F#
1-#
1<#
b1001 #
b1001 &
0"
#90000
16
b1010 !
b1010 )
0(
1E
1Q
09#
0F#
19
1G
0-#
0<#
b1010 #
b1010 &
1"
#100000
b1011 !
b1011 )
1(
19#
1F#
1-#
1<#
b1011 #
b1011 &
0"
#110000
06
14
b1100 !
b1100 )
0(
0E
0Q
1^
1j
09#
0F#
09
0G
1R
1`
0-#
0<#
b1100 #
b1100 &
1"
#120000
b1101 !
b1101 )
1(
19#
1F#
1-#
1<#
b1101 #
b1101 &
0"
#130000
16
b1110 !
b1110 )
0(
1E
1Q
09#
0F#
19
1G
0-#
0<#
b1110 #
b1110 &
1"
#140000
10
12"
1>"
13
1x
02
1v
0%"
15
1_
04
1]
0j
17
b10000 !
b10000 )
06
1F
0Q
1D
18
1:#
17#
19#
1.#
1=#
1-#
1<#
b1 $
b1 '
b1111 #
b1111 &
0"
#150000
0.
0E
0^
0w
0K"
0W"
08
07
05
03
01
0:#
0F
06
0_
04
0x
02
03"
10
07#
b10001 !
b10001 )
1(
0D
0Q
0]
0j
0v
0%"
01"
1>"
09#
1F#
09
0G
0R
0`
0k
0y
1&"
14"
0-#
0<#
b10000 #
b10000 &
1"
#160000
16
1Q
1E
18
1:#
17#
b10010 !
b10010 )
0(
19#
0F#
1-#
1<#
b10001 #
b10001 &
0"
#170000
04
0^
0j
08
07
0:#
0F
16
07#
b10011 !
b10011 )
1(
0D
1Q
09#
1F#
19
1G
0-#
0<#
b10010 #
b10010 &
1"
#180000
14
1^
1j
17
06
1F
0Q
1D
18
1:#
17#
b10100 !
b10100 )
0(
19#
0F#
1-#
1<#
b10011 #
b10011 &
0"
#190000
02
0E
0w
0%"
08
07
05
0:#
0F
06
0_
14
07#
b10101 !
b10101 )
1(
0D
0Q
0]
1j
09#
1F#
09
0G
1R
1`
0-#
0<#
b10100 #
b10100 &
1"
#200000
16
1Q
1E
18
1:#
17#
b10110 !
b10110 )
0(
19#
0F#
1-#
1<#
b10101 #
b10101 &
0"
#210000
02
0w
0%"
05
0_
14
0]
1j
08
07
0:#
0F
16
07#
b10111 !
b10111 )
1(
0D
1Q
09#
1F#
19
1G
0-#
0<#
b10110 #
b10110 &
1"
#220000
12
1w
1%"
15
1_
04
1]
0j
17
06
1F
0Q
1D
18
1:#
17#
b11000 !
b11000 )
0(
19#
0F#
1-#
1<#
b10111 #
b10111 &
0"
#230000
0.
0K"
0W"
01
03"
10
0E
0^
01"
1>"
08
07
05
03
0:#
0F
06
0_
04
0x
12
07#
b11001 !
b11001 )
1(
0D
0Q
0]
0j
0v
1%"
09#
1F#
09
0G
0R
0`
1k
1y
0-#
0<#
b11000 #
b11000 &
1"
#240000
16
1Q
1E
18
1:#
17#
b11010 !
b11010 )
0(
19#
0F#
1-#
1<#
b11001 #
b11001 &
0"
#250000
04
0^
0j
08
07
0:#
0F
16
07#
b11011 !
b11011 )
1(
0D
1Q
09#
1F#
19
1G
0-#
0<#
b11010 #
b11010 &
1"
#260000
14
1^
1j
17
06
1F
0Q
1D
18
1:#
17#
b11100 !
b11100 )
0(
19#
0F#
1-#
1<#
b11011 #
b11011 &
0"
#270000
0.
0K"
0W"
01
03"
10
01"
1>"
03
0x
12
0E
0v
1%"
08
07
05
0:#
0F
06
0_
14
07#
b11101 !
b11101 )
1(
0D
0Q
0]
1j
09#
1F#
09
0G
1R
1`
0-#
0<#
b11100 #
b11100 &
1"
#280000
16
1Q
1E
18
1:#
17#
b11110 !
b11110 )
0(
19#
0F#
1-#
1<#
b11101 #
b11101 &
0"
#290000
0.
0K"
0W"
01
03"
10
01"
1>"
03
0x
12
0v
1%"
05
0_
14
0]
1j
08
07
0:#
0F
16
07#
b11111 !
b11111 )
1(
0D
1Q
09#
1F#
19
1G
0-#
0<#
b11110 #
b11110 &
1"
#300000
1.
1K"
1W"
11
13"
00
11"
0>"
13
1x
02
1v
0%"
15
1_
04
1]
0j
17
1F
b100001 !
b100001 )
06
1C
0Q
19#
1:
1H
0.#
0=#
1-#
1<#
b10 $
b10 '
b11111 #
b11111 &
0"
#310000
0^
0,
07
0w
02"
0d"
0p"
0F
05
03
01
0/
0C
16
0_
04
0x
02
03"
00
0L"
1.
b100010 !
b100010 )
0(
0E
1Q
0]
0j
0v
0%"
01"
0>"
0J"
1W"
09#
0F#
09
0G
0R
0`
0k
0y
0&"
04"
1?"
1M"
0-#
0<#
b100000 #
b100000 &
1"
#320000
b100011 !
b100011 )
1(
19#
1F#
1-#
1<#
b100001 #
b100001 &
0"
#330000
14
1^
1j
17
1F
1C
06
b100100 !
b100100 )
0(
1E
0Q
09#
0F#
19
1G
0-#
0<#
b100010 #
b100010 &
1"
#340000
b100101 !
b100101 )
1(
19#
1F#
1-#
1<#
b100011 #
b100011 &
0"
#350000
02
07
0w
0%"
0F
05
0C
16
0_
14
b100110 !
b100110 )
0(
0E
1Q
0]
1j
09#
0F#
09
0G
1R
1`
0-#
0<#
b100100 #
b100100 &
1"
#360000
b100111 !
b100111 )
1(
19#
1F#
1-#
1<#
b100101 #
b100101 &
0"
#370000
12
1w
1%"
15
1_
04
1]
0j
17
1F
1C
06
b101000 !
b101000 )
0(
1E
0Q
09#
0F#
19
1G
0-#
0<#
b100110 #
b100110 &
1"
#380000
b101001 !
b101001 )
1(
19#
1F#
1-#
1<#
b100111 #
b100111 &
0"
#390000
0^
00
07
02"
0>"
0F
05
03
0C
16
0_
04
0x
12
b101010 !
b101010 )
0(
0E
1Q
0]
0j
0v
1%"
09#
0F#
09
0G
0R
0`
1k
1y
0-#
0<#
b101000 #
b101000 &
1"
#400000
b101011 !
b101011 )
1(
19#
1F#
1-#
1<#
b101001 #
b101001 &
0"
#410000
14
1^
1j
17
1F
1C
06
b101100 !
b101100 )
0(
1E
0Q
09#
0F#
19
1G
0-#
0<#
b101010 #
b101010 &
1"
#420000
b101101 !
b101101 )
1(
19#
1F#
1-#
1<#
b101011 #
b101011 &
0"
#430000
00
02"
0>"
03
0x
12
07
0v
1%"
0F
05
0C
16
0_
14
b101110 !
b101110 )
0(
0E
1Q
0]
1j
09#
0F#
09
0G
1R
1`
0-#
0<#
b101100 #
b101100 &
1"
#440000
b101111 !
b101111 )
1(
19#
1F#
1-#
1<#
b101101 #
b101101 &
0"
#450000
10
12"
1>"
13
1x
02
1v
0%"
15
1_
04
1]
0j
17
1F
1C
06
b110000 !
b110000 )
0(
1E
0Q
09#
0F#
19
1G
0-#
0<#
b101110 #
b101110 &
1"
#460000
b110010 !
b110010 )
16
1Q
1D
18
1:#
17#
19#
1.#
1=#
1-#
1<#
b11 $
b11 '
b101111 #
b101111 &
0"
#470000
0^
0,
07
0d"
0p"
0F
0/
0C
0L"
1.
0E
0w
0J"
1W"
08
05
03
01
0:#
16
0_
04
0x
02
03"
10
07#
b110011 !
b110011 )
1(
0D
1Q
0]
0j
0v
0%"
01"
1>"
09#
1F#
09
0G
0R
0`
0k
0y
1&"
14"
0-#
0<#
b110000 #
b110000 &
1"
#480000
14
1^
1j
17
1F
06
1C
0Q
1E
18
1:#
17#
b110100 !
b110100 )
0(
19#
0F#
1-#
1<#
b110001 #
b110001 &
0"
#490000
08
0:#
06
07#
b110101 !
b110101 )
1(
0D
0Q
09#
1F#
19
1G
0-#
0<#
b110010 #
b110010 &
1"
#500000
16
1Q
1D
18
1:#
17#
b110110 !
b110110 )
0(
19#
0F#
1-#
1<#
b110011 #
b110011 &
0"
#510000
07
0F
0C
02
0E
0w
0%"
08
05
0:#
16
0_
14
07#
b110111 !
b110111 )
1(
0D
1Q
0]
1j
09#
1F#
09
0G
1R
1`
0-#
0<#
b110100 #
b110100 &
1"
#520000
12
1w
1%"
15
1_
04
1]
0j
17
1F
06
1C
0Q
1E
18
1:#
17#
b111000 !
b111000 )
0(
19#
0F#
1-#
1<#
b110101 #
b110101 &
0"
#530000
08
0:#
06
07#
b111001 !
b111001 )
1(
0D
0Q
09#
1F#
19
1G
0-#
0<#
b110110 #
b110110 &
1"
#540000
16
1Q
1D
18
1:#
17#
b111010 !
b111010 )
0(
19#
0F#
1-#
1<#
b110111 #
b110111 &
0"
#550000
0,
0d"
0p"
0/
0^
0L"
1.
07
0J"
1W"
0F
01
0C
03"
10
0E
01"
1>"
08
05
03
0:#
16
0_
04
0x
12
07#
b111011 !
b111011 )
1(
0D
1Q
0]
0j
0v
1%"
09#
1F#
09
0G
0R
0`
1k
1y
0-#
0<#
b111000 #
b111000 &
1"
#560000
14
1^
1j
17
1F
06
1C
0Q
1E
18
1:#
17#
b111100 !
b111100 )
0(
19#
0F#
1-#
1<#
b111001 #
b111001 &
0"
#570000
08
0:#
06
07#
b111101 !
b111101 )
1(
0D
0Q
09#
1F#
19
1G
0-#
0<#
b111010 #
b111010 &
1"
#580000
16
1Q
1D
18
1:#
17#
b111110 !
b111110 )
0(
19#
0F#
1-#
1<#
b111011 #
b111011 &
0"
#590000
0,
0d"
0p"
0/
0L"
1.
0J"
1W"
01
03"
10
07
01"
1>"
0F
03
0C
0x
12
0E
0v
1%"
08
05
0:#
16
0_
14
07#
b111111 !
b111111 )
1(
0D
1Q
0]
1j
09#
1F#
09
0G
1R
1`
0-#
0<#
b111100 #
b111100 &
1"
#600000
1,
1d"
1p"
1/
1L"
0.
1J"
0W"
11
13"
00
11"
0>"
13
1x
02
1v
0%"
15
1_
04
1]
0j
17
1F
06
1C
0Q
1E
18
1:#
17#
b1000000 !
b1000000 )
0(
19#
0F#
1-#
1<#
b111101 #
b111101 &
0"
#610000
08
0:#
06
07#
b1000001 !
b1000001 )
1(
0D
0Q
09#
1F#
19
1G
0-#
0<#
b111110 #
b111110 &
1"
#620000
0]
07
0F
16
b1000011 !
b1000011 )
04
0C
1Q
1\
0j
19#
0:
0H
1S
1a
0.#
0=#
1-#
1<#
b100 $
b100 '
b111111 #
b111111 &
0"
#630000
0w
0*
05
02"
0K"
0}"
0+#
0_
03
01
0/
0-
06
0\
14
0x
02
03"
00
0L"
0.
0e"
1,
b1000100 !
b1000100 )
0(
0E
0Q
0^
1j
0v
0%"
01"
0>"
0J"
0W"
0c"
1p"
09#
0F#
09
0G
0R
0`
0k
0y
0&"
04"
0?"
0M"
1X"
1f"
0-#
0<#
b1000000 #
b1000000 &
1"
#640000
b1000101 !
b1000101 )
1(
19#
1F#
1-#
1<#
b1000001 #
b1000001 &
0"
#650000
16
b1000110 !
b1000110 )
0(
1E
1Q
09#
0F#
19
1G
0-#
0<#
b1000010 #
b1000010 &
1"
#660000
b1000111 !
b1000111 )
1(
19#
1F#
1-#
1<#
b1000011 #
b1000011 &
0"
#670000
12
1w
1%"
15
1_
06
1\
04
b1001000 !
b1001000 )
0(
0E
0Q
1^
0j
09#
0F#
09
0G
1R
1`
0-#
0<#
b1000100 #
b1000100 &
1"
#680000
b1001001 !
b1001001 )
1(
19#
1F#
1-#
1<#
b1000101 #
b1000101 &
0"
#690000
16
b1001010 !
b1001010 )
0(
1E
1Q
09#
0F#
19
1G
0-#
0<#
b1000110 #
b1000110 &
1"
#700000
b1001011 !
b1001011 )
1(
19#
1F#
1-#
1<#
b1000111 #
b1000111 &
0"
#710000
00
05
02"
0>"
0_
03
06
0\
14
0x
12
b1001100 !
b1001100 )
0(
0E
0Q
0^
1j
0v
1%"
09#
0F#
09
0G
0R
0`
1k
1y
0-#
0<#
b1001000 #
b1001000 &
1"
#720000
b1001101 !
b1001101 )
1(
19#
1F#
1-#
1<#
b1001001 #
b1001001 &
0"
#730000
16
b1001110 !
b1001110 )
0(
1E
1Q
09#
0F#
19
1G
0-#
0<#
b1001010 #
b1001010 &
1"
#740000
b1001111 !
b1001111 )
1(
19#
1F#
1-#
1<#
b1001011 #
b1001011 &
0"
#750000
10
12"
1>"
13
1x
02
1v
0%"
15
1_
06
1\
04
b1010000 !
b1010000 )
0(
0E
0Q
1^
0j
09#
0F#
09
0G
1R
1`
0-#
0<#
b1001100 #
b1001100 &
1"
#760000
b1010001 !
b1010001 )
1(
19#
1F#
1-#
1<#
b1001101 #
b1001101 &
0"
#770000
16
b1010010 !
b1010010 )
0(
1E
1Q
09#
0F#
19
1G
0-#
0<#
b1001110 #
b1001110 &
1"
#780000
14
1]
1j
17
b1010100 !
b1010100 )
06
1F
0Q
1D
18
1:#
17#
19#
1.#
1=#
1-#
1<#
b101 $
b101 '
b1001111 #
b1001111 &
0"
#790000
0w
05
0_
0\
0.
0E
0^
0K"
0W"
08
07
03
01
0:#
0F
06
14
0x
02
03"
10
07#
b1010101 !
b1010101 )
1(
0D
0Q
0]
1j
0v
0%"
01"
1>"
09#
1F#
09
0G
0R
0`
0k
0y
1&"
14"
0-#
0<#
b1010000 #
b1010000 &
1"
#800000
16
1Q
1E
18
1:#
17#
b1010110 !
b1010110 )
0(
19#
0F#
1-#
1<#
b1010001 #
b1010001 &
0"
#810000
02
0w
0%"
05
0_
0\
14
0^
1j
08
07
0:#
0F
16
07#
b1010111 !
b1010111 )
1(
0D
1Q
09#
1F#
19
1G
0-#
0<#
b1010010 #
b1010010 &
1"
#820000
12
1w
1%"
15
1_
1\
04
1^
0j
17
06
1F
0Q
1D
18
1:#
17#
b1011000 !
b1011000 )
0(
19#
0F#
1-#
1<#
b1010011 #
b1010011 &
0"
#830000
0E
08
07
0:#
0F
06
04
07#
b1011001 !
b1011001 )
1(
0D
0Q
0]
0j
09#
1F#
09
0G
1R
1`
0-#
0<#
b1010100 #
b1010100 &
1"
#840000
16
1Q
1E
18
1:#
17#
b1011010 !
b1011010 )
0(
19#
0F#
1-#
1<#
b1010101 #
b1010101 &
0"
#850000
04
0]
0j
08
07
0:#
0F
16
07#
b1011011 !
b1011011 )
1(
0D
1Q
09#
1F#
19
1G
0-#
0<#
b1010110 #
b1010110 &
1"
#860000
14
1]
1j
17
06
1F
0Q
1D
18
1:#
17#
b1011100 !
b1011100 )
0(
19#
0F#
1-#
1<#
b1010111 #
b1010111 &
0"
#870000
0.
05
0K"
0W"
0_
01
0\
03"
10
0E
0^
01"
1>"
08
07
03
0:#
0F
06
14
0x
12
07#
b1011101 !
b1011101 )
1(
0D
0Q
0]
1j
0v
1%"
09#
1F#
09
0G
0R
0`
1k
1y
0-#
0<#
b1011000 #
b1011000 &
1"
#880000
16
1Q
1E
18
1:#
17#
b1011110 !
b1011110 )
0(
19#
0F#
1-#
1<#
b1011001 #
b1011001 &
0"
#890000
0.
0K"
0W"
01
03"
10
01"
1>"
03
0x
12
0v
1%"
05
0_
0\
14
0^
1j
08
07
0:#
0F
16
07#
b1011111 !
b1011111 )
1(
0D
1Q
09#
1F#
19
1G
0-#
0<#
b1011010 #
b1011010 &
1"
#900000
1.
1K"
1W"
11
13"
00
11"
0>"
13
1x
02
1v
0%"
15
1_
1\
04
1^
0j
17
06
1F
0Q
1D
18
1:#
17#
b1100000 !
b1100000 )
0(
19#
0F#
1-#
1<#
b1011011 #
b1011011 &
0"
#910000
0E
08
07
0:#
0F
06
04
07#
b1100001 !
b1100001 )
1(
0D
0Q
0]
0j
09#
1F#
09
0G
1R
1`
0-#
0<#
b1011100 #
b1011100 &
1"
#920000
16
1Q
1E
18
1:#
17#
b1100010 !
b1100010 )
0(
19#
0F#
1-#
1<#
b1011101 #
b1011101 &
0"
#930000
04
0]
0j
08
07
0:#
0F
16
07#
b1100011 !
b1100011 )
1(
0D
1Q
09#
1F#
19
1G
0-#
0<#
b1011110 #
b1011110 &
1"
#940000
14
1]
1j
17
1F
b1100101 !
b1100101 )
06
1C
0Q
19#
1:
1H
0.#
0=#
1-#
1<#
b110 $
b110 '
b1011111 #
b1011111 &
0"
#950000
0w
05
0*
0_
0}"
0+#
0\
0-
0^
0e"
1,
07
02"
0c"
1p"
0F
03
01
0/
0C
16
14
0x
02
03"
00
0L"
1.
b1100110 !
b1100110 )
0(
0E
1Q
0]
1j
0v
0%"
01"
0>"
0J"
1W"
09#
0F#
09
0G
0R
0`
0k
0y
0&"
04"
1?"
1M"
0-#
0<#
b1100000 #
b1100000 &
1"
#960000
b1100111 !
b1100111 )
1(
19#
1F#
1-#
1<#
b1100001 #
b1100001 &
0"
#970000
12
1w
1%"
15
1_
1\
04
1^
0j
17
1F
1C
06
b1101000 !
b1101000 )
0(
1E
0Q
09#
0F#
19
1G
0-#
0<#
b1100010 #
b1100010 &
1"
